{
    "default" :
    {
        "color" : "off",
        "flags" : "normal",
        "state" : false,
        "enable" : false
    },
    "pads" :
    [
        {
            "posX" : 0,
            "posY" : 0,
            "color" : "green",
            "state" : true
        },
        {
            "posX" : 1,
            "posY" : 0,
            "color" : "red",
            "state" : true
        },
        {
            "posX" : 2,
            "posY" : 0,
            "color" : "amber",
            "state" : true
        },
        {
            "posX" : 3,
            "posY" : 0,
            "color" : "green_low",
            "state" : false
        },
        {
            "posX" : 4,
            "posY" : 0,
            "color" : "red_low",
            "state" : false
        }
    ]
}
